{
  "name": "baldurmen-apt_listchanges",
  "version": "1.0.0",
  "author": "Louis-Philippe Véronneau",
  "summary": "Simple module to install and manage apt-listchanges",
  "license": "GPL-3.0",
  "source": "https://gitlab.com/baldurmen/puppet-apt_listchanges",
  "project_page": "https://gitlab.com/baldurmen/puppet-apt_listchanges",
  "issues_url": "https://gitlab.com/baldurmen/puppet-apt_listchanges/issues",
  "operatingsystem_support": [
    {
      "operatingsystem": "Debian",
      "operatingsystemrelease": [
        "8",
        "9"
      ]
    }
  ],
  "dependencies": [],
  "requirements": [
    {
      "name": "puppet",
      "version_requirement": "4.X"
    }
  ],
  "description": "Simple module to install and manage apt-listchanges."
}
